{
  "type": "minecraft:crafting_shaped",
  "group": "bark",
  "pattern": [
    "##",
    "##"
  ],
  "key": {
    "#": {
      "item": "goodnightsleep:dream_log"
    }
  },
  "result": {
    "item": "goodnightsleep:dream_wood",
    "count": 3
  }
}