{
  "type": "minecraft:crafting_shaped",
  "pattern": [
    "###"
  ],
  "key": {
    "#": {
      "item": "goodnightsleep:white_plank"
    }
  },
  "result": {
    "item": "goodnightsleep:white_slab",
    "count": 6
  }
}