{
    "parent": "block/slab_top",
    "textures": {
        "bottom": "goodnightsleep:block/delusion_stonebrick",
        "top": "goodnightsleep:block/delusion_stonebrick",
        "side": "goodnightsleep:block/delusion_stonebrick"
    }
}
