{
	"parent": "block/cube_bottom_top",
	"textures": {
		"particle": "block/dirt",
		"bottom": "block/dirt",
		"top": "goodnightsleep:block/natural/nightmare_grass_top",
		"side": "goodnightsleep:block/natural/nightmare_grass_side"
	}
}